{
	"results":{
		 "pageNum": 1,
	    "pageSize": 10,
	    "size": 10,
	    "orderBy": null,
	    "startRow": 1,
	    "endRow": 10,
	    "total": 80,
	    "pages": 8,
	    "firstPage": 1,
	    "prePage": 0,
	    "nextPage": 2,
	    "lastPage": 8,
	    "isFirstPage": true,
	    "isLastPage": false,
	    "hasPreviousPage": false,
	    "hasNextPage": true,
	    "navigatePages": 8,
		 "employeeList":[
	 			{"id":6,"name":"lm","no":"001","orgName":"冕冠电子商务有限公司","orgId":1,"orgCode":"1","level":"1",
	               "entryDate":null,"leaveDate":null,"mobile":null,"extNo":"123456","qq":"38917306","wechat":"38917306@qq.com",
	               "email":"38917306@qq.com","position":"软件工程师","isManager":1,"status":1,"ename":"john","role":"管理员","show":true
	           }
	        ]
	   },
	"msg":"success",
	"code":200
}